Augment data with information from a(n) CMP model object — augment.cmp • mpcmp
…
Augment will often behave differently depending on whether data or newdata is given. This is because there is often information associated with training observations (such as influences or related) measures that is not meaningfully defined for new observations.

For convenience, many augment methods provide default data arguments, so that augment(fit) will return the augmented training data. In these cases, augment tries to reconstruct the original data based on the model object with varying degrees of success.

The augmented dataset is always returned as a tibble::tibble with the same number of rows as the passed dataset. This means that the passed data must be coercible to a tibble.

We are in the process of defining behaviours for models fit with various na.action arguments, but make no guarantees about behaviour when data is missing at this time.

    Examples

data(attendance)
M.attendance <- glm.cmp(daysabs ~ gender + math + prog, data = attendance)
augment(M.attendance)
#> # A tibble: 314 x 9
#>    daysabs gender  math prog       .fitted .resid .std.resid    .hat   .cooksd
#>      <dbl> <fct>  <dbl> <fct>        <dbl>  <dbl>      <dbl>   <dbl>     <dbl>
#>  1       4 male      63 Academic     1.68  -0.264     -0.266 0.0115  0.000140 
#>  2       4 male      27 Academic     1.90  -0.464     -0.467 0.0106  0.000352 
#>  3       2 female    20 Academic     2.16  -1.14      -1.14  0.0128  0.00164  
#>  4       3 female    16 Academic     2.19  -0.907     -0.914 0.0140  0.00135  
#>  5       3 female     2 Academic     2.28  -0.976     -0.985 0.0201  0.00217  
#>  6      13 female    71 Academic     1.84   0.837      0.843 0.0137  0.00312  
#>  7      11 female    63 Academic     1.89   0.561      0.565 0.0117  0.00103  
#>  8       7 male       3 Academic     2.06  -0.109     -0.110 0.0184  0.0000424
#>  9      10 male      51 Academic     1.75   0.605      0.608 0.00968 0.00102  
#> 10       9 male      49 Vocational   0.936  1.47       1.48  0.0124  0.0124   
#> # … with 304 more rows
…
